{
  "data": [
    {
      "id": 1,
      "name": "John Doe",
      "email": ""
    }
  ],
  "total": 36,
  "currentPage": 1,
  "totalPages": 3
}
